{
  "images" : [
    {
      "idiom" : "universal",
      "filename" : "CCRL-2018-LOGO-COLOUR-02-(1).png",
      "scale" : "1x"
    },
    {
      "idiom" : "universal",
      "filename" : "CCRL-2018-LOGO-COLOUR-02-(1)-1.png",
      "scale" : "2x"
    },
    {
      "idiom" : "universal",
      "filename" : "CCRL-2018-LOGO-COLOUR-02-(1)-2.png",
      "scale" : "3x"
    }
  ],
  "info" : {
    "version" : 1,
    "author" : "xcode"
  }
}